{
	"info": {
		"_postman_id": "d8a4f3d5-b54c-49ba-8eb0-8b34aa539b0b",
		"name": "Simple Book API",
		"schema": "https://schema.getpostman.com/json/collection/v2.1.0/collection.json",
		"_exporter_id": "23665335"
	},
	"item": [
		{
			"name": "API Status",
			"event": [
				{
					"listen": "test",
					"script": {
						"exec": [
							"pm.test(\"Status code is 200\", function () {\r",
							"    pm.response.to.have.status(200);\r",
							"});\r",
							"\r",
							"const response = pm.response.json();\r",
							"\r",
							"console.log(response.status);\r",
							"console.log(response['status']);\r",
							"\r",
							"pm.test(\"status should be OK\",() => {\r",
							"    pm.expect(response.status).eql(\"OK\");\r",
							"})\r",
							"\r",
							"postman.setNextRequest(\"List of books\");"
						],
						"type": "text/javascript"
					}
				}
			],
			"request": {
				"method": "GET",
				"header": [],
				"url": {
					"raw": "https://simple-books-api.glitch.me/status/",
					"protocol": "https",
					"host": [
						"simple-books-api",
						"glitch",
						"me"
					],
					"path": [
						"status",
						""
					]
				}
			},
			"response": []
		},
		{
			"name": "Register APi Client",
			"event": [
				{
					"listen": "test",
					"script": {
						"exec": [
							"pm.test(\"Status code is 204\", function () {\r",
							"    pm.response.to.have.status(204);\r",
							"});"
						],
						"type": "text/javascript"
					}
				}
			],
			"request": {
				"method": "POST",
				"header": [],
				"body": {
					"mode": "raw",
					"raw": "{\r\n   \"clientName\": \"Postman\",\r\n   \"clientEmail\": \"valentin081@example.com\"\r\n}",
					"options": {
						"raw": {
							"language": "json"
						}
					}
				},
				"url": {
					"raw": "{{baseUrl}}/api-clients",
					"host": [
						"{{baseUrl}}"
					],
					"path": [
						"api-clients"
					]
				}
			},
			"response": []
		},
		{
			"name": "List of books",
			"event": [
				{
					"listen": "test",
					"script": {
						"exec": [
							"pm.test(\"Status code is 200\", function () {\r",
							"    pm.response.to.have.status(200);\r",
							"});\r",
							"\r",
							"const response = pm.response.json();\r",
							"\r",
							"const nonFictionBooks = response.filter((book) => book.available === true);\r",
							"\r",
							"const book = nonFictionBooks[0];\r",
							"\r",
							"if (book) {\r",
							"    pm.globals.set(\"bookId\", book.id);\r",
							"}\r",
							"\r",
							"pm.test(\"book found\", () => {\r",
							"    pm.expect(book).to.be.an(\"Object\");\r",
							"    pm.expect(book.available).to.be.true;\r",
							"    pm.expect(book.available).to.eql(true);\r",
							"    pm.expect(book.type).to.eql(\"non-fiction\");\r",
							"})\r",
							"\r",
							""
						],
						"type": "text/javascript"
					}
				}
			],
			"request": {
				"method": "GET",
				"header": [],
				"url": {
					"raw": "{{baseUrl}}/books?type=non-fiction&foo=2",
					"host": [
						"{{baseUrl}}"
					],
					"path": [
						"books"
					],
					"query": [
						{
							"key": "type",
							"value": "non-fiction"
						},
						{
							"key": "foo",
							"value": "2"
						}
					]
				}
			},
			"response": []
		},
		{
			"name": "Get single book",
			"event": [
				{
					"listen": "test",
					"script": {
						"exec": [
							"pm.test(\"Status code is 200\", function () {\r",
							"    pm.response.to.have.status(200);\r",
							"});\r",
							"\r",
							"const response = pm.response.json();\r",
							"\r",
							"pm.test(\"Is in stock\", function () {\r",
							"    pm.expect(response['current-stock']).to.be.above(0);\r",
							"});"
						],
						"type": "text/javascript"
					}
				}
			],
			"request": {
				"method": "GET",
				"header": [],
				"url": {
					"raw": "{{baseUrl}}/books/:bookId",
					"host": [
						"{{baseUrl}}"
					],
					"path": [
						"books",
						":bookId"
					],
					"variable": [
						{
							"key": "bookId",
							"value": "{{bookId}}"
						}
					]
				}
			},
			"response": []
		},
		{
			"name": "Order book",
			"event": [
				{
					"listen": "test",
					"script": {
						"exec": [
							"pm.test(\"Status code is 201\", function () {\r",
							"    pm.response.to.have.status(201);\r",
							"});\r",
							"\r",
							"const response = pm.response.json();\r",
							"\r",
							"pm.globals.set(\"orderid\", response.orderid);"
						],
						"type": "text/javascript"
					}
				}
			],
			"request": {
				"auth": {
					"type": "bearer",
					"bearer": [
						{
							"key": "token",
							"value": "{{accesToken}}",
							"type": "string"
						}
					]
				},
				"method": "POST",
				"header": [],
				"body": {
					"mode": "raw",
					"raw": "{\r\n  \"bookId\": {{bookId}},\r\n  \"customerName\": \"{{$randomFullName}}\"\r\n}\r\n",
					"options": {
						"raw": {
							"language": "json"
						}
					}
				},
				"url": {
					"raw": "{{baseUrl}}/orders",
					"host": [
						"{{baseUrl}}"
					],
					"path": [
						"orders"
					]
				}
			},
			"response": []
		},
		{
			"name": "Get all book orders",
			"event": [
				{
					"listen": "test",
					"script": {
						"exec": [
							"pm.test(\"Status code is 200\", function () {\r",
							"    pm.response.to.have.status(200);\r",
							"});"
						],
						"type": "text/javascript"
					}
				}
			],
			"request": {
				"auth": {
					"type": "bearer",
					"bearer": [
						{
							"key": "token",
							"value": "{{accesToken}}",
							"type": "string"
						}
					]
				},
				"method": "GET",
				"header": [],
				"url": {
					"raw": "{{baseUrl}}/orders",
					"host": [
						"{{baseUrl}}"
					],
					"path": [
						"orders"
					]
				}
			},
			"response": []
		},
		{
			"name": "Get an order",
			"event": [
				{
					"listen": "test",
					"script": {
						"exec": [
							"pm.test(\"Status code is 200\", function () {\r",
							"    pm.response.to.have.status(200);\r",
							"});"
						],
						"type": "text/javascript"
					}
				}
			],
			"request": {
				"auth": {
					"type": "bearer",
					"bearer": [
						{
							"key": "token",
							"value": "{{accesToken}}",
							"type": "string"
						}
					]
				},
				"method": "GET",
				"header": [],
				"url": {
					"raw": "{{baseUrl}}/orders/{{orderId}}",
					"host": [
						"{{baseUrl}}"
					],
					"path": [
						"orders",
						"{{orderId}}"
					]
				}
			},
			"response": []
		},
		{
			"name": "Update an order",
			"event": [
				{
					"listen": "test",
					"script": {
						"exec": [
							"pm.test(\"Status code is 204\", function () {\r",
							"    pm.response.to.have.status(204);\r",
							"});"
						],
						"type": "text/javascript"
					}
				}
			],
			"request": {
				"auth": {
					"type": "bearer",
					"bearer": [
						{
							"key": "token",
							"value": "{{accesToken}}",
							"type": "string"
						}
					]
				},
				"method": "PATCH",
				"header": [],
				"body": {
					"mode": "raw",
					"raw": "{\r\n  \"customerName\": \"John {{$randomLastName}}\"\r\n}",
					"options": {
						"raw": {
							"language": "json"
						}
					}
				},
				"url": {
					"raw": "{{baseUrl}}/orders/:orderId",
					"host": [
						"{{baseUrl}}"
					],
					"path": [
						"orders",
						":orderId"
					],
					"variable": [
						{
							"key": "orderId",
							"value": "{{bookId}}"
						}
					]
				}
			},
			"response": []
		},
		{
			"name": "Delete order",
			"event": [
				{
					"listen": "test",
					"script": {
						"exec": [
							"pm.test(\"Status code is 204\", function () {\r",
							"    pm.response.to.have.status(204);\r",
							"});"
						],
						"type": "text/javascript"
					}
				}
			],
			"request": {
				"auth": {
					"type": "bearer",
					"bearer": [
						{
							"key": "token",
							"value": "{{accesToken}}",
							"type": "string"
						}
					]
				},
				"method": "DELETE",
				"header": [],
				"body": {
					"mode": "raw",
					"raw": "{\r\n  \"customerName\": \"John {{$randomLastName}}\"\r\n}",
					"options": {
						"raw": {
							"language": "json"
						}
					}
				},
				"url": {
					"raw": "{{baseUrl}}/orders/:orderId",
					"host": [
						"{{baseUrl}}"
					],
					"path": [
						"orders",
						":orderId"
					],
					"variable": [
						{
							"key": "orderId",
							"value": "{{orderId}}"
						}
					]
				}
			},
			"response": []
		}
	],
	"event": [
		{
			"listen": "prerequest",
			"script": {
				"type": "text/javascript",
				"exec": [
					""
				]
			}
		},
		{
			"listen": "test",
			"script": {
				"type": "text/javascript",
				"exec": [
					""
				]
			}
		}
	],
	"variable": [
		{
			"key": "baseUrl",
			"value": "https://simple-books-api.glitch.me"
		},
		{
			"key": "accesToken",
			"value": "454217a534cae1066aaa3d8e032f6c2dc4337441a6f330052ff4bbadd2ed3466",
			"type": "string"
		}
	]
}